^C:\USERS\DANIE\DOCUMENTS\MAGSHIMIM\YEAR 2\SEMESTER 2\CLASS 1\TRIVIA\TRIVIACLIENT&SERVER\TRIVIASERVER\DEBUG\DATABASE.OBJ|C:\USERS\DANIE\DOCUMENTS\MAGSHIMIM\YEAR 2\SEMESTER 2\CLASS 1\TRIVIA\TRIVIACLIENT&SERVER\TRIVIASERVER\DEBUG\DBUSER.OBJ|C:\USERS\DANIE\DOCUMENTS\MAGSHIMIM\YEAR 2\SEMESTER 2\CLASS 1\TRIVIA\TRIVIACLIENT&SERVER\TRIVIASERVER\DEBUG\GAME.OBJ|C:\USERS\DANIE\DOCUMENTS\MAGSHIMIM\YEAR 2\SEMESTER 2\CLASS 1\TRIVIA\TRIVIACLIENT&SERVER\TRIVIASERVER\DEBUG\HELPER.OBJ|C:\USERS\DANIE\DOCUMENTS\MAGSHIMIM\YEAR 2\SEMESTER 2\CLASS 1\TRIVIA\TRIVIACLIENT&SERVER\TRIVIASERVER\DEBUG\MAIN.OBJ|C:\USERS\DANIE\DOCUMENTS\MAGSHIMIM\YEAR 2\SEMESTER 2\CLASS 1\TRIVIA\TRIVIACLIENT&SERVER\TRIVIASERVER\DEBUG\QUESTION.OBJ|C:\USERS\DANIE\DOCUMENTS\MAGSHIMIM\YEAR 2\SEMESTER 2\CLASS 1\TRIVIA\TRIVIACLIENT&SERVER\TRIVIASERVER\DEBUG\RECIEVEDMESSAGE.OBJ|C:\USERS\DANIE\DOCUMENTS\MAGSHIMIM\YEAR 2\SEMESTER 2\CLASS 1\TRIVIA\TRIVIACLIENT&SERVER\TRIVIASERVER\DEBUG\ROOM.OBJ|C:\USERS\DANIE\DOCUMENTS\MAGSHIMIM\YEAR 2\SEMESTER 2\CLASS 1\TRIVIA\TRIVIACLIENT&SERVER\TRIVIASERVER\DEBUG\SQLITE3.OBJ|C:\USERS\DANIE\DOCUMENTS\MAGSHIMIM\YEAR 2\SEMESTER 2\CLASS 1\TRIVIA\TRIVIACLIENT&SERVER\TRIVIASERVER\DEBUG\TRIVIASERVER.OBJ|C:\USERS\DANIE\DOCUMENTS\MAGSHIMIM\YEAR 2\SEMESTER 2\CLASS 1\TRIVIA\TRIVIACLIENT&SERVER\TRIVIASERVER\DEBUG\USER.OBJ|C:\USERS\DANIE\DOCUMENTS\MAGSHIMIM\YEAR 2\SEMESTER 2\CLASS 1\TRIVIA\TRIVIACLIENT&SERVER\TRIVIASERVER\DEBUG\VALIDATOR.OBJ|C:\USERS\DANIE\DOCUMENTS\MAGSHIMIM\YEAR 2\SEMESTER 2\CLASS 1\TRIVIA\TRIVIACLIENT&SERVER\TRIVIASERVER\DEBUG\WSAINITIALIZER.OBJ
/OUT:"C:\USERS\DANIE\DOCUMENTS\MAGSHIMIM\YEAR 2\SEMESTER 2\CLASS 1\TRIVIA\TRIVIACLIENT&SERVER\DEBUG\TRIVIASERVER.EXE" /INCREMENTAL /NOLOGO kernel32.lib user32.lib gdi32.lib winspool.lib comdlg32.lib advapi32.lib shell32.lib ole32.lib oleaut32.lib uuid.lib odbc32.lib odbccp32.lib /MANIFEST /MANIFESTUAC:"level='asInvoker' uiAccess='false'" /manifest:embed /DEBUG /PDB:"C:\USERS\DANIE\DOCUMENTS\MAGSHIMIM\YEAR 2\SEMESTER 2\CLASS 1\TRIVIA\TRIVIACLIENT&SERVER\DEBUG\TRIVIASERVER.PDB" /TLBID:1 /DYNAMICBASE /NXCOMPAT /IMPLIB:"C:\USERS\DANIE\DOCUMENTS\MAGSHIMIM\YEAR 2\SEMESTER 2\CLASS 1\TRIVIA\TRIVIACLIENT&SERVER\DEBUG\TRIVIASERVER.LIB" /MACHINE:X86 DEBUG\DATABASE.OBJDEBUG\DBUSER.OBJDEBUG\GAME.OBJDEBUG\HELPER.OBJDEBUG\MAIN.OBJDEBUG\QUESTION.OBJDEBUG\RECIEVEDMESSAGE.OBJDEBUG\ROOM.OBJDEBUG\SQLITE3.OBJDEBUG\TRIVIASERVER.OBJDEBUG\USER.OBJDEBUG\VALIDATOR.OBJDEBUG\WSAINITIALIZER.OBJ
^C:\USERS\DANIE\DOCUMENTS\MAGSHIMIM\YEAR 2\SEMESTER 2\CLASS 1\TRIVIA\TRIVIA-CODE\TRIVIACLIENT&SERVER\TRIVIASERVER\DEBUG\DATABASE.OBJ|C:\USERS\DANIE\DOCUMENTS\MAGSHIMIM\YEAR 2\SEMESTER 2\CLASS 1\TRIVIA\TRIVIA-CODE\TRIVIACLIENT&SERVER\TRIVIASERVER\DEBUG\DBUSER.OBJ|C:\USERS\DANIE\DOCUMENTS\MAGSHIMIM\YEAR 2\SEMESTER 2\CLASS 1\TRIVIA\TRIVIA-CODE\TRIVIACLIENT&SERVER\TRIVIASERVER\DEBUG\GAME.OBJ|C:\USERS\DANIE\DOCUMENTS\MAGSHIMIM\YEAR 2\SEMESTER 2\CLASS 1\TRIVIA\TRIVIA-CODE\TRIVIACLIENT&SERVER\TRIVIASERVER\DEBUG\HELPER.OBJ|C:\USERS\DANIE\DOCUMENTS\MAGSHIMIM\YEAR 2\SEMESTER 2\CLASS 1\TRIVIA\TRIVIA-CODE\TRIVIACLIENT&SERVER\TRIVIASERVER\DEBUG\MAIN.OBJ|C:\USERS\DANIE\DOCUMENTS\MAGSHIMIM\YEAR 2\SEMESTER 2\CLASS 1\TRIVIA\TRIVIA-CODE\TRIVIACLIENT&SERVER\TRIVIASERVER\DEBUG\QUESTION.OBJ|C:\USERS\DANIE\DOCUMENTS\MAGSHIMIM\YEAR 2\SEMESTER 2\CLASS 1\TRIVIA\TRIVIA-CODE\TRIVIACLIENT&SERVER\TRIVIASERVER\DEBUG\RECIEVEDMESSAGE.OBJ|C:\USERS\DANIE\DOCUMENTS\MAGSHIMIM\YEAR 2\SEMESTER 2\CLASS 1\TRIVIA\TRIVIA-CODE\TRIVIACLIENT&SERVER\TRIVIASERVER\DEBUG\ROOM.OBJ|C:\USERS\DANIE\DOCUMENTS\MAGSHIMIM\YEAR 2\SEMESTER 2\CLASS 1\TRIVIA\TRIVIA-CODE\TRIVIACLIENT&SERVER\TRIVIASERVER\DEBUG\SQLITE3.OBJ|C:\USERS\DANIE\DOCUMENTS\MAGSHIMIM\YEAR 2\SEMESTER 2\CLASS 1\TRIVIA\TRIVIA-CODE\TRIVIACLIENT&SERVER\TRIVIASERVER\DEBUG\TRIVIASERVER.OBJ|C:\USERS\DANIE\DOCUMENTS\MAGSHIMIM\YEAR 2\SEMESTER 2\CLASS 1\TRIVIA\TRIVIA-CODE\TRIVIACLIENT&SERVER\TRIVIASERVER\DEBUG\USER.OBJ|C:\USERS\DANIE\DOCUMENTS\MAGSHIMIM\YEAR 2\SEMESTER 2\CLASS 1\TRIVIA\TRIVIA-CODE\TRIVIACLIENT&SERVER\TRIVIASERVER\DEBUG\VALIDATOR.OBJ|C:\USERS\DANIE\DOCUMENTS\MAGSHIMIM\YEAR 2\SEMESTER 2\CLASS 1\TRIVIA\TRIVIA-CODE\TRIVIACLIENT&SERVER\TRIVIASERVER\DEBUG\WSAINITIALIZER.OBJ
/OUT:"C:\USERS\DANIE\DOCUMENTS\MAGSHIMIM\YEAR 2\SEMESTER 2\CLASS 1\TRIVIA\TRIVIA-CODE\TRIVIACLIENT&SERVER\DEBUG\TRIVIASERVER.EXE" /INCREMENTAL /NOLOGO kernel32.lib user32.lib gdi32.lib winspool.lib comdlg32.lib advapi32.lib shell32.lib ole32.lib oleaut32.lib uuid.lib odbc32.lib odbccp32.lib /MANIFEST /MANIFESTUAC:"level='asInvoker' uiAccess='false'" /manifest:embed /DEBUG /PDB:"C:\USERS\DANIE\DOCUMENTS\MAGSHIMIM\YEAR 2\SEMESTER 2\CLASS 1\TRIVIA\TRIVIA-CODE\TRIVIACLIENT&SERVER\DEBUG\TRIVIASERVER.PDB" /TLBID:1 /DYNAMICBASE /NXCOMPAT /IMPLIB:"C:\USERS\DANIE\DOCUMENTS\MAGSHIMIM\YEAR 2\SEMESTER 2\CLASS 1\TRIVIA\TRIVIA-CODE\TRIVIACLIENT&SERVER\DEBUG\TRIVIASERVER.LIB" /MACHINE:X86 DEBUG\DATABASE.OBJDEBUG\DBUSER.OBJDEBUG\GAME.OBJDEBUG\HELPER.OBJDEBUG\MAIN.OBJDEBUG\QUESTION.OBJDEBUG\RECIEVEDMESSAGE.OBJDEBUG\ROOM.OBJDEBUG\SQLITE3.OBJDEBUG\TRIVIASERVER.OBJDEBUG\USER.OBJDEBUG\VALIDATOR.OBJDEBUG\WSAINITIALIZER.OBJ
